
	{
		"id" : "1",
		"tag" : "div",
		"class" : "item item-food",
		"content" : [
			{
				"tag" : "div",
				"class" : "content-food",
				"content" : [
					{
						"id" : "11",
						"id_parent": "1",
						"tag" : "p",
						"class" : "item__title",
						"content" : [
							{
								"id" : "111",
								"id_parent": "11",
								"tag" : "strong",
								"class" : "",
								"label" : "Name Food",
								"type" : "text",
								"name_input" : "name",
								"content" : "The food name here!"
							},
							{
								"id" : "112",
								"id_parent": "11",
								"tag" : "span",
								"class" : "item__price",
								"label" : "Price",
								"type" : "text",
								"name_input" : "price",
								"content" : "50"
							}
						]
					},
					{
						"id" : "12",
						"id_parent": "1",
						"tag" : "p",
						"class" : "item__desc",
						"label" : "Description",
						"type" : "text",
						"name_input" : "description",
						"content" : "Description the food here"
					},
					{
						"id" : "13",
						"id_parent": "1",
						"tag" : "small",
						"class" : "item__close",
						"label" : "Close",
						"content" : "x"
					}
				]
			},
			{
				"tag" : "img",
				"class" : "file-image",
				"label" : "Image",
				"src" : "./images/ga1.jpeg",
				"type": "file",
				"name_input" : "image",
				"content" : ""
			}
		]
	}
